%YAML 1.1
%TAG !u! tag:unity3d.com,2011:
--- !u!1001 &100100000
Prefab:
  m_ObjectHideFlags: 1
  serializedVersion: 2
  m_Modification:
    m_TransformParent: {fileID: 0}
    m_Modifications: []
    m_RemovedComponents: []
  m_SourcePrefab: {fileID: 0}
  m_RootGameObject: {fileID: 1980520689679930}
  m_IsPrefabAsset: 1
--- !u!1 &1980520689679930
GameObject:
  m_ObjectHideFlags: 0
  m_CorrespondingSourceObject: {fileID: 0}
  m_PrefabInternal: {fileID: 100100000}
  serializedVersion: 6
  m_Component:
  - component: {fileID: 4928029858420672}
  - component: {fileID: 114526398943698134}
  m_Layer: 0
  m_Name: Tile Stone Settings
  m_TagString: Untagged
  m_Icon: {fileID: 0}
  m_NavMeshLayer: 0
  m_StaticEditorFlags: 0
  m_IsActive: 1
--- !u!4 &4928029858420672
Transform:
  m_ObjectHideFlags: 1
  m_CorrespondingSourceObject: {fileID: 0}
  m_PrefabInternal: {fileID: 100100000}
  m_GameObject: {fileID: 1980520689679930}
  m_LocalRotation: {x: 0, y: 0, z: 0, w: 1}
  m_LocalPosition: {x: 0, y: 0, z: 0}
  m_LocalScale: {x: 1, y: 1, z: 1}
  m_Children: []
  m_Father: {fileID: 0}
  m_RootOrder: 0
  m_LocalEulerAnglesHint: {x: 0, y: 0, z: 0}
--- !u!114 &114526398943698134
MonoBehaviour:
  m_ObjectHideFlags: 1
  m_CorrespondingSourceObject: {fileID: 0}
  m_PrefabInternal: {fileID: 100100000}
  m_GameObject: {fileID: 1980520689679930}
  m_Enabled: 1
  m_EditorHideFlags: 0
  m_Script: {fileID: 11500000, guid: d8d99f1a2929310428d88d1dd29357be, type: 3}
  m_Name: 
  m_EditorClassIdentifier: 
  tileType: 1
  maxHealth: 6
  textureBasicLow: {fileID: 2800000, guid: 08fdd4f21b275b54897f3b66f5361834, type: 3}
  textureBasic: {fileID: 2800000, guid: 08fdd4f21b275b54897f3b66f5361834, type: 3}
  textureBasicHigh: {fileID: 2800000, guid: 1f4d99274da6a2b41ad53dca74952b70, type: 3}
  textureBricks: {fileID: 2800000, guid: 0530dea2f30163548a1fe93a61dc45df, type: 3}
  layer: 9
  rendererEnabled: 1
