%YAML 1.1
%TAG !u! tag:unity3d.com,2011:
--- !u!29 &1
OcclusionCullingSettings:
  m_ObjectHideFlags: 0
  serializedVersion: 2
  m_OcclusionBakeSettings:
    smallestOccluder: 5
    smallestHole: 0.25
    backfaceThreshold: 100
  m_SceneGUID: 00000000000000000000000000000000
  m_OcclusionCullingData: {fileID: 0}
--- !u!104 &2
RenderSettings:
  m_ObjectHideFlags: 0
  serializedVersion: 9
  m_Fog: 1
  m_FogColor: {r: 0.5, g: 0.5, b: 0.5, a: 1}
  m_FogMode: 3
  m_FogDensity: 0.1
  m_LinearFogStart: 0
  m_LinearFogEnd: 300
  m_AmbientSkyColor: {r: 0.212, g: 0.227, b: 0.259, a: 1}
  m_AmbientEquatorColor: {r: 0.114, g: 0.125, b: 0.133, a: 1}
  m_AmbientGroundColor: {r: 0.047, g: 0.043, b: 0.035, a: 1}
  m_AmbientIntensity: 1
  m_AmbientMode: 0
  m_SubtractiveShadowColor: {r: 0.42, g: 0.478, b: 0.627, a: 1}
  m_SkyboxMaterial: {fileID: 10304, guid: 0000000000000000f000000000000000, type: 0}
  m_HaloStrength: 0.5
  m_FlareStrength: 1
  m_FlareFadeSpeed: 3
  m_HaloTexture: {fileID: 0}
  m_SpotCookie: {fileID: 10001, guid: 0000000000000000e000000000000000, type: 0}
  m_DefaultReflectionMode: 0
  m_DefaultReflectionResolution: 128
  m_ReflectionBounces: 1
  m_ReflectionIntensity: 1
  m_CustomReflection: {fileID: 0}
  m_Sun: {fileID: 0}
  m_IndirectSpecularColor: {r: 0.44657844, g: 0.49641222, b: 0.57481694, a: 1}
  m_UseRadianceAmbientProbe: 0
--- !u!157 &3
LightmapSettings:
  m_ObjectHideFlags: 0
  serializedVersion: 11
  m_GIWorkflowMode: 0
  m_GISettings:
    serializedVersion: 2
    m_BounceScale: 1
    m_IndirectOutputScale: 1
    m_AlbedoBoost: 1
    m_TemporalCoherenceThreshold: 1
    m_EnvironmentLightingMode: 0
    m_EnableBakedLightmaps: 1
    m_EnableRealtimeLightmaps: 0
  m_LightmapEditorSettings:
    serializedVersion: 10
    m_Resolution: 2
    m_BakeResolution: 10
    m_AtlasSize: 512
    m_AO: 0
    m_AOMaxDistance: 1
    m_CompAOExponent: 1
    m_CompAOExponentDirect: 0
    m_Padding: 2
    m_LightmapParameters: {fileID: 0}
    m_LightmapsBakeMode: 1
    m_TextureCompression: 1
    m_FinalGather: 0
    m_FinalGatherFiltering: 1
    m_FinalGatherRayCount: 256
    m_ReflectionCompression: 2
    m_MixedBakeMode: 2
    m_BakeBackend: 1
    m_PVRSampling: 1
    m_PVRDirectSampleCount: 32
    m_PVRSampleCount: 256
    m_PVRBounces: 2
    m_PVRFilterTypeDirect: 0
    m_PVRFilterTypeIndirect: 0
    m_PVRFilterTypeAO: 0
    m_PVRFilteringMode: 1
    m_PVRCulling: 1
    m_PVRFilteringGaussRadiusDirect: 1
    m_PVRFilteringGaussRadiusIndirect: 5
    m_PVRFilteringGaussRadiusAO: 2
    m_PVRFilteringAtrousPositionSigmaDirect: 0.5
    m_PVRFilteringAtrousPositionSigmaIndirect: 2
    m_PVRFilteringAtrousPositionSigmaAO: 1
    m_ShowResolutionOverlay: 1
  m_LightingDataAsset: {fileID: 0}
  m_UseShadowmask: 1
--- !u!196 &4
NavMeshSettings:
  serializedVersion: 2
  m_ObjectHideFlags: 0
  m_BuildSettings:
    serializedVersion: 2
    agentTypeID: 0
    agentRadius: 0.5
    agentHeight: 2
    agentSlope: 45
    agentClimb: 0.4
    ledgeDropHeight: 0
    maxJumpAcrossDistance: 0
    minRegionArea: 2
    manualCellSize: 0
    cellSize: 0.16666667
    manualTileSize: 0
    tileSize: 256
    accuratePlacement: 0
    debug:
      m_Flags: 0
  m_NavMeshData: {fileID: 0}
--- !u!1001 &164005521
Prefab:
  m_ObjectHideFlags: 0
  serializedVersion: 2
  m_Modification:
    m_TransformParent: {fileID: 0}
    m_Modifications:
    - target: {fileID: 4333050662401230, guid: 9535ba37a5c77e047a917ecbfb10b95a, type: 2}
      propertyPath: m_LocalPosition.x
      value: 0
      objectReference: {fileID: 0}
    - target: {fileID: 4333050662401230, guid: 9535ba37a5c77e047a917ecbfb10b95a, type: 2}
      propertyPath: m_LocalPosition.y
      value: 0
      objectReference: {fileID: 0}
    - target: {fileID: 4333050662401230, guid: 9535ba37a5c77e047a917ecbfb10b95a, type: 2}
      propertyPath: m_LocalPosition.z
      value: 0
      objectReference: {fileID: 0}
    - target: {fileID: 4333050662401230, guid: 9535ba37a5c77e047a917ecbfb10b95a, type: 2}
      propertyPath: m_LocalRotation.x
      value: -0
      objectReference: {fileID: 0}
    - target: {fileID: 4333050662401230, guid: 9535ba37a5c77e047a917ecbfb10b95a, type: 2}
      propertyPath: m_LocalRotation.y
      value: -0
      objectReference: {fileID: 0}
    - target: {fileID: 4333050662401230, guid: 9535ba37a5c77e047a917ecbfb10b95a, type: 2}
      propertyPath: m_LocalRotation.z
      value: -0
      objectReference: {fileID: 0}
    - target: {fileID: 4333050662401230, guid: 9535ba37a5c77e047a917ecbfb10b95a, type: 2}
      propertyPath: m_LocalRotation.w
      value: 1
      objectReference: {fileID: 0}
    - target: {fileID: 4333050662401230, guid: 9535ba37a5c77e047a917ecbfb10b95a, type: 2}
      propertyPath: m_RootOrder
      value: 4
      objectReference: {fileID: 0}
    - target: {fileID: 1519008946881724, guid: 9535ba37a5c77e047a917ecbfb10b95a, type: 2}
      propertyPath: m_Name
      value: Sector (2)
      objectReference: {fileID: 0}
    m_RemovedComponents: []
  m_SourcePrefab: {fileID: 100100000, guid: 9535ba37a5c77e047a917ecbfb10b95a, type: 2}
  m_IsPrefabAsset: 0
--- !u!1 &170076733
GameObject:
  m_ObjectHideFlags: 0
  m_CorrespondingSourceObject: {fileID: 0}
  m_PrefabInternal: {fileID: 0}
  serializedVersion: 6
  m_Component:
  - component: {fileID: 170076735}
  - component: {fileID: 170076734}
  m_Layer: 0
  m_Name: Directional Light
  m_TagString: Untagged
  m_Icon: {fileID: 0}
  m_NavMeshLayer: 0
  m_StaticEditorFlags: 0
  m_IsActive: 1
--- !u!108 &170076734
Light:
  m_ObjectHideFlags: 0
  m_CorrespondingSourceObject: {fileID: 0}
  m_PrefabInternal: {fileID: 0}
  m_GameObject: {fileID: 170076733}
  m_Enabled: 1
  serializedVersion: 8
  m_Type: 1
  m_Color: {r: 1, g: 0.95686275, b: 0.8392157, a: 1}
  m_Intensity: 1
  m_Range: 10
  m_SpotAngle: 30
  m_CookieSize: 10
  m_Shadows:
    m_Type: 2
    m_Resolution: -1
    m_CustomResolution: -1
    m_Strength: 1
    m_Bias: 0.05
    m_NormalBias: 0.4
    m_NearPlane: 0.2
  m_Cookie: {fileID: 0}
  m_DrawHalo: 0
  m_Flare: {fileID: 0}
  m_RenderMode: 0
  m_CullingMask:
    serializedVersion: 2
    m_Bits: 4294967295
  m_Lightmapping: 1
  m_LightShadowCasterMode: 0
  m_AreaSize: {x: 1, y: 1}
  m_BounceIntensity: 1
  m_ColorTemperature: 6570
  m_UseColorTemperature: 0
  m_ShadowRadius: 0
  m_ShadowAngle: 0
--- !u!4 &170076735
Transform:
  m_ObjectHideFlags: 0
  m_CorrespondingSourceObject: {fileID: 0}
  m_PrefabInternal: {fileID: 0}
  m_GameObject: {fileID: 170076733}
  m_LocalRotation: {x: 0.40821788, y: -0.23456968, z: 0.10938163, w: 0.8754261}
  m_LocalPosition: {x: 0, y: 3, z: 0}
  m_LocalScale: {x: 1, y: 1, z: 1}
  m_Children: []
  m_Father: {fileID: 0}
  m_RootOrder: 0
  m_LocalEulerAnglesHint: {x: 50, y: -30, z: 0}
--- !u!1001 &328385816
Prefab:
  m_ObjectHideFlags: 0
  serializedVersion: 2
  m_Modification:
    m_TransformParent: {fileID: 0}
    m_Modifications:
    - target: {fileID: 4333050662401230, guid: 9535ba37a5c77e047a917ecbfb10b95a, type: 2}
      propertyPath: m_LocalPosition.x
      value: 0
      objectReference: {fileID: 0}
    - target: {fileID: 4333050662401230, guid: 9535ba37a5c77e047a917ecbfb10b95a, type: 2}
      propertyPath: m_LocalPosition.y
      value: 0
      objectReference: {fileID: 0}
    - target: {fileID: 4333050662401230, guid: 9535ba37a5c77e047a917ecbfb10b95a, type: 2}
      propertyPath: m_LocalPosition.z
      value: 0
      objectReference: {fileID: 0}
    - target: {fileID: 4333050662401230, guid: 9535ba37a5c77e047a917ecbfb10b95a, type: 2}
      propertyPath: m_LocalRotation.x
      value: -0
      objectReference: {fileID: 0}
    - target: {fileID: 4333050662401230, guid: 9535ba37a5c77e047a917ecbfb10b95a, type: 2}
      propertyPath: m_LocalRotation.y
      value: -0
      objectReference: {fileID: 0}
    - target: {fileID: 4333050662401230, guid: 9535ba37a5c77e047a917ecbfb10b95a, type: 2}
      propertyPath: m_LocalRotation.z
      value: -0
      objectReference: {fileID: 0}
    - target: {fileID: 4333050662401230, guid: 9535ba37a5c77e047a917ecbfb10b95a, type: 2}
      propertyPath: m_LocalRotation.w
      value: 1
      objectReference: {fileID: 0}
    - target: {fileID: 4333050662401230, guid: 9535ba37a5c77e047a917ecbfb10b95a, type: 2}
      propertyPath: m_RootOrder
      value: 5
      objectReference: {fileID: 0}
    - target: {fileID: 1519008946881724, guid: 9535ba37a5c77e047a917ecbfb10b95a, type: 2}
      propertyPath: m_Name
      value: Sector (3)
      objectReference: {fileID: 0}
    m_RemovedComponents: []
  m_SourcePrefab: {fileID: 100100000, guid: 9535ba37a5c77e047a917ecbfb10b95a, type: 2}
  m_IsPrefabAsset: 0
--- !u!1001 &330383332
Prefab:
  m_ObjectHideFlags: 0
  serializedVersion: 2
  m_Modification:
    m_TransformParent: {fileID: 0}
    m_Modifications:
    - target: {fileID: 4333050662401230, guid: 9535ba37a5c77e047a917ecbfb10b95a, type: 2}
      propertyPath: m_LocalPosition.x
      value: 0
      objectReference: {fileID: 0}
    - target: {fileID: 4333050662401230, guid: 9535ba37a5c77e047a917ecbfb10b95a, type: 2}
      propertyPath: m_LocalPosition.y
      value: 0
      objectReference: {fileID: 0}
    - target: {fileID: 4333050662401230, guid: 9535ba37a5c77e047a917ecbfb10b95a, type: 2}
      propertyPath: m_LocalPosition.z
      value: 0
      objectReference: {fileID: 0}
    - target: {fileID: 4333050662401230, guid: 9535ba37a5c77e047a917ecbfb10b95a, type: 2}
      propertyPath: m_LocalRotation.x
      value: -0
      objectReference: {fileID: 0}
    - target: {fileID: 4333050662401230, guid: 9535ba37a5c77e047a917ecbfb10b95a, type: 2}
      propertyPath: m_LocalRotation.y
      value: -0
      objectReference: {fileID: 0}
    - target: {fileID: 4333050662401230, guid: 9535ba37a5c77e047a917ecbfb10b95a, type: 2}
      propertyPath: m_LocalRotation.z
      value: -0
      objectReference: {fileID: 0}
    - target: {fileID: 4333050662401230, guid: 9535ba37a5c77e047a917ecbfb10b95a, type: 2}
      propertyPath: m_LocalRotation.w
      value: 1
      objectReference: {fileID: 0}
    - target: {fileID: 4333050662401230, guid: 9535ba37a5c77e047a917ecbfb10b95a, type: 2}
      propertyPath: m_RootOrder
      value: 8
      objectReference: {fileID: 0}
    - target: {fileID: 1519008946881724, guid: 9535ba37a5c77e047a917ecbfb10b95a, type: 2}
      propertyPath: m_Name
      value: Sector (6)
      objectReference: {fileID: 0}
    m_RemovedComponents: []
  m_SourcePrefab: {fileID: 100100000, guid: 9535ba37a5c77e047a917ecbfb10b95a, type: 2}
  m_IsPrefabAsset: 0
--- !u!1001 &337030253
Prefab:
  m_ObjectHideFlags: 0
  serializedVersion: 2
  m_Modification:
    m_TransformParent: {fileID: 0}
    m_Modifications:
    - target: {fileID: 4333050662401230, guid: 9535ba37a5c77e047a917ecbfb10b95a, type: 2}
      propertyPath: m_LocalPosition.x
      value: 0
      objectReference: {fileID: 0}
    - target: {fileID: 4333050662401230, guid: 9535ba37a5c77e047a917ecbfb10b95a, type: 2}
      propertyPath: m_LocalPosition.y
      value: 0
      objectReference: {fileID: 0}
    - target: {fileID: 4333050662401230, guid: 9535ba37a5c77e047a917ecbfb10b95a, type: 2}
      propertyPath: m_LocalPosition.z
      value: 0
      objectReference: {fileID: 0}
    - target: {fileID: 4333050662401230, guid: 9535ba37a5c77e047a917ecbfb10b95a, type: 2}
      propertyPath: m_LocalRotation.x
      value: -0
      objectReference: {fileID: 0}
    - target: {fileID: 4333050662401230, guid: 9535ba37a5c77e047a917ecbfb10b95a, type: 2}
      propertyPath: m_LocalRotation.y
      value: -0
      objectReference: {fileID: 0}
    - target: {fileID: 4333050662401230, guid: 9535ba37a5c77e047a917ecbfb10b95a, type: 2}
      propertyPath: m_LocalRotation.z
      value: -0
      objectReference: {fileID: 0}
    - target: {fileID: 4333050662401230, guid: 9535ba37a5c77e047a917ecbfb10b95a, type: 2}
      propertyPath: m_LocalRotation.w
      value: 1
      objectReference: {fileID: 0}
    - target: {fileID: 4333050662401230, guid: 9535ba37a5c77e047a917ecbfb10b95a, type: 2}
      propertyPath: m_RootOrder
      value: 6
      objectReference: {fileID: 0}
    - target: {fileID: 1519008946881724, guid: 9535ba37a5c77e047a917ecbfb10b95a, type: 2}
      propertyPath: m_Name
      value: Sector (4)
      objectReference: {fileID: 0}
    m_RemovedComponents: []
  m_SourcePrefab: {fileID: 100100000, guid: 9535ba37a5c77e047a917ecbfb10b95a, type: 2}
  m_IsPrefabAsset: 0
--- !u!1001 &461602831
Prefab:
  m_ObjectHideFlags: 0
  serializedVersion: 2
  m_Modification:
    m_TransformParent: {fileID: 0}
    m_Modifications:
    - target: {fileID: 4333050662401230, guid: 9535ba37a5c77e047a917ecbfb10b95a, type: 2}
      propertyPath: m_LocalPosition.x
      value: 0
      objectReference: {fileID: 0}
    - target: {fileID: 4333050662401230, guid: 9535ba37a5c77e047a917ecbfb10b95a, type: 2}
      propertyPath: m_LocalPosition.y
      value: 0
      objectReference: {fileID: 0}
    - target: {fileID: 4333050662401230, guid: 9535ba37a5c77e047a917ecbfb10b95a, type: 2}
      propertyPath: m_LocalPosition.z
      value: 0
      objectReference: {fileID: 0}
    - target: {fileID: 4333050662401230, guid: 9535ba37a5c77e047a917ecbfb10b95a, type: 2}
      propertyPath: m_LocalRotation.x
      value: -0
      objectReference: {fileID: 0}
    - target: {fileID: 4333050662401230, guid: 9535ba37a5c77e047a917ecbfb10b95a, type: 2}
      propertyPath: m_LocalRotation.y
      value: -0
      objectReference: {fileID: 0}
    - target: {fileID: 4333050662401230, guid: 9535ba37a5c77e047a917ecbfb10b95a, type: 2}
      propertyPath: m_LocalRotation.z
      value: -0
      objectReference: {fileID: 0}
    - target: {fileID: 4333050662401230, guid: 9535ba37a5c77e047a917ecbfb10b95a, type: 2}
      propertyPath: m_LocalRotation.w
      value: 1
      objectReference: {fileID: 0}
    - target: {fileID: 4333050662401230, guid: 9535ba37a5c77e047a917ecbfb10b95a, type: 2}
      propertyPath: m_RootOrder
      value: 9
      objectReference: {fileID: 0}
    - target: {fileID: 1519008946881724, guid: 9535ba37a5c77e047a917ecbfb10b95a, type: 2}
      propertyPath: m_Name
      value: Sector (7)
      objectReference: {fileID: 0}
    m_RemovedComponents: []
  m_SourcePrefab: {fileID: 100100000, guid: 9535ba37a5c77e047a917ecbfb10b95a, type: 2}
  m_IsPrefabAsset: 0
--- !u!1001 &729360372
Prefab:
  m_ObjectHideFlags: 0
  serializedVersion: 2
  m_Modification:
    m_TransformParent: {fileID: 0}
    m_Modifications:
    - target: {fileID: 4333050662401230, guid: 9535ba37a5c77e047a917ecbfb10b95a, type: 2}
      propertyPath: m_LocalPosition.x
      value: 0
      objectReference: {fileID: 0}
    - target: {fileID: 4333050662401230, guid: 9535ba37a5c77e047a917ecbfb10b95a, type: 2}
      propertyPath: m_LocalPosition.y
      value: 0
      objectReference: {fileID: 0}
    - target: {fileID: 4333050662401230, guid: 9535ba37a5c77e047a917ecbfb10b95a, type: 2}
      propertyPath: m_LocalPosition.z
      value: 0
      objectReference: {fileID: 0}
    - target: {fileID: 4333050662401230, guid: 9535ba37a5c77e047a917ecbfb10b95a, type: 2}
      propertyPath: m_LocalRotation.x
      value: -0
      objectReference: {fileID: 0}
    - target: {fileID: 4333050662401230, guid: 9535ba37a5c77e047a917ecbfb10b95a, type: 2}
      propertyPath: m_LocalRotation.y
      value: -0
      objectReference: {fileID: 0}
    - target: {fileID: 4333050662401230, guid: 9535ba37a5c77e047a917ecbfb10b95a, type: 2}
      propertyPath: m_LocalRotation.z
      value: -0
      objectReference: {fileID: 0}
    - target: {fileID: 4333050662401230, guid: 9535ba37a5c77e047a917ecbfb10b95a, type: 2}
      propertyPath: m_LocalRotation.w
      value: 1
      objectReference: {fileID: 0}
    - target: {fileID: 4333050662401230, guid: 9535ba37a5c77e047a917ecbfb10b95a, type: 2}
      propertyPath: m_RootOrder
      value: 10
      objectReference: {fileID: 0}
    - target: {fileID: 1519008946881724, guid: 9535ba37a5c77e047a917ecbfb10b95a, type: 2}
      propertyPath: m_Name
      value: Sector (8)
      objectReference: {fileID: 0}
    m_RemovedComponents: []
  m_SourcePrefab: {fileID: 100100000, guid: 9535ba37a5c77e047a917ecbfb10b95a, type: 2}
  m_IsPrefabAsset: 0
--- !u!1001 &1368784283
Prefab:
  m_ObjectHideFlags: 0
  serializedVersion: 2
  m_Modification:
    m_TransformParent: {fileID: 0}
    m_Modifications:
    - target: {fileID: 4333050662401230, guid: 9535ba37a5c77e047a917ecbfb10b95a, type: 2}
      propertyPath: m_LocalPosition.x
      value: 0
      objectReference: {fileID: 0}
    - target: {fileID: 4333050662401230, guid: 9535ba37a5c77e047a917ecbfb10b95a, type: 2}
      propertyPath: m_LocalPosition.y
      value: 0
      objectReference: {fileID: 0}
    - target: {fileID: 4333050662401230, guid: 9535ba37a5c77e047a917ecbfb10b95a, type: 2}
      propertyPath: m_LocalPosition.z
      value: 0
      objectReference: {fileID: 0}
    - target: {fileID: 4333050662401230, guid: 9535ba37a5c77e047a917ecbfb10b95a, type: 2}
      propertyPath: m_LocalRotation.x
      value: -0
      objectReference: {fileID: 0}
    - target: {fileID: 4333050662401230, guid: 9535ba37a5c77e047a917ecbfb10b95a, type: 2}
      propertyPath: m_LocalRotation.y
      value: -0
      objectReference: {fileID: 0}
    - target: {fileID: 4333050662401230, guid: 9535ba37a5c77e047a917ecbfb10b95a, type: 2}
      propertyPath: m_LocalRotation.z
      value: -0
      objectReference: {fileID: 0}
    - target: {fileID: 4333050662401230, guid: 9535ba37a5c77e047a917ecbfb10b95a, type: 2}
      propertyPath: m_LocalRotation.w
      value: 1
      objectReference: {fileID: 0}
    - target: {fileID: 4333050662401230, guid: 9535ba37a5c77e047a917ecbfb10b95a, type: 2}
      propertyPath: m_RootOrder
      value: 2
      objectReference: {fileID: 0}
    m_RemovedComponents: []
  m_SourcePrefab: {fileID: 100100000, guid: 9535ba37a5c77e047a917ecbfb10b95a, type: 2}
  m_IsPrefabAsset: 0
--- !u!1001 &1445712914
Prefab:
  m_ObjectHideFlags: 0
  serializedVersion: 2
  m_Modification:
    m_TransformParent: {fileID: 0}
    m_Modifications:
    - target: {fileID: 4784290201755506, guid: 2dad89ef44ece134fbd2ffbc9125db6c, type: 2}
      propertyPath: m_LocalPosition.x
      value: 0
      objectReference: {fileID: 0}
    - target: {fileID: 4784290201755506, guid: 2dad89ef44ece134fbd2ffbc9125db6c, type: 2}
      propertyPath: m_LocalPosition.y
      value: 0
      objectReference: {fileID: 0}
    - target: {fileID: 4784290201755506, guid: 2dad89ef44ece134fbd2ffbc9125db6c, type: 2}
      propertyPath: m_LocalPosition.z
      value: 0
      objectReference: {fileID: 0}
    - target: {fileID: 4784290201755506, guid: 2dad89ef44ece134fbd2ffbc9125db6c, type: 2}
      propertyPath: m_LocalRotation.x
      value: 0
      objectReference: {fileID: 0}
    - target: {fileID: 4784290201755506, guid: 2dad89ef44ece134fbd2ffbc9125db6c, type: 2}
      propertyPath: m_LocalRotation.y
      value: 0
      objectReference: {fileID: 0}
    - target: {fileID: 4784290201755506, guid: 2dad89ef44ece134fbd2ffbc9125db6c, type: 2}
      propertyPath: m_LocalRotation.z
      value: 0
      objectReference: {fileID: 0}
    - target: {fileID: 4784290201755506, guid: 2dad89ef44ece134fbd2ffbc9125db6c, type: 2}
      propertyPath: m_LocalRotation.w
      value: 1
      objectReference: {fileID: 0}
    - target: {fileID: 4784290201755506, guid: 2dad89ef44ece134fbd2ffbc9125db6c, type: 2}
      propertyPath: m_RootOrder
      value: 1
      objectReference: {fileID: 0}
    - target: {fileID: 224151274753615704, guid: 2dad89ef44ece134fbd2ffbc9125db6c,
        type: 2}
      propertyPath: m_AnchorMin.y
      value: 0
      objectReference: {fileID: 0}
    - target: {fileID: 224151274753615704, guid: 2dad89ef44ece134fbd2ffbc9125db6c,
        type: 2}
      propertyPath: m_AnchorMax.y
      value: 0
      objectReference: {fileID: 0}
    - target: {fileID: 224151274753615704, guid: 2dad89ef44ece134fbd2ffbc9125db6c,
        type: 2}
      propertyPath: m_AnchoredPosition.x
      value: 26
      objectReference: {fileID: 0}
    - target: {fileID: 224151274753615704, guid: 2dad89ef44ece134fbd2ffbc9125db6c,
        type: 2}
      propertyPath: m_AnchoredPosition.y
      value: 0
      objectReference: {fileID: 0}
    - target: {fileID: 224920844147376420, guid: 2dad89ef44ece134fbd2ffbc9125db6c,
        type: 2}
      propertyPath: m_AnchoredPosition.x
      value: 26
      objectReference: {fileID: 0}
    - target: {fileID: 224948259784450192, guid: 2dad89ef44ece134fbd2ffbc9125db6c,
        type: 2}
      propertyPath: m_AnchoredPosition.x
      value: 51
      objectReference: {fileID: 0}
    - target: {fileID: 224220265059865090, guid: 2dad89ef44ece134fbd2ffbc9125db6c,
        type: 2}
      propertyPath: m_AnchoredPosition.x
      value: 34
      objectReference: {fileID: 0}
    - target: {fileID: 224020221718806358, guid: 2dad89ef44ece134fbd2ffbc9125db6c,
        type: 2}
      propertyPath: m_AnchoredPosition.x
      value: 26
      objectReference: {fileID: 0}
    - target: {fileID: 224812526680912606, guid: 2dad89ef44ece134fbd2ffbc9125db6c,
        type: 2}
      propertyPath: m_SizeDelta.x
      value: 0
      objectReference: {fileID: 0}
    - target: {fileID: 224812526680912606, guid: 2dad89ef44ece134fbd2ffbc9125db6c,
        type: 2}
      propertyPath: m_SizeDelta.y
      value: 0
      objectReference: {fileID: 0}
    - target: {fileID: 224151274753615704, guid: 2dad89ef44ece134fbd2ffbc9125db6c,
        type: 2}
      propertyPath: m_SizeDelta.x
      value: 0
      objectReference: {fileID: 0}
    - target: {fileID: 224151274753615704, guid: 2dad89ef44ece134fbd2ffbc9125db6c,
        type: 2}
      propertyPath: m_SizeDelta.y
      value: 0
      objectReference: {fileID: 0}
    - target: {fileID: 224443279183205874, guid: 2dad89ef44ece134fbd2ffbc9125db6c,
        type: 2}
      propertyPath: m_AnchorMin.y
      value: 0
      objectReference: {fileID: 0}
    - target: {fileID: 224443279183205874, guid: 2dad89ef44ece134fbd2ffbc9125db6c,
        type: 2}
      propertyPath: m_AnchorMax.y
      value: 0
      objectReference: {fileID: 0}
    - target: {fileID: 224443279183205874, guid: 2dad89ef44ece134fbd2ffbc9125db6c,
        type: 2}
      propertyPath: m_AnchoredPosition.x
      value: 0
      objectReference: {fileID: 0}
    - target: {fileID: 224443279183205874, guid: 2dad89ef44ece134fbd2ffbc9125db6c,
        type: 2}
      propertyPath: m_AnchoredPosition.y
      value: 0
      objectReference: {fileID: 0}
    - target: {fileID: 224948259784450192, guid: 2dad89ef44ece134fbd2ffbc9125db6c,
        type: 2}
      propertyPath: m_AnchorMin.y
      value: 0
      objectReference: {fileID: 0}
    - target: {fileID: 224948259784450192, guid: 2dad89ef44ece134fbd2ffbc9125db6c,
        type: 2}
      propertyPath: m_AnchorMax.y
      value: 0
      objectReference: {fileID: 0}
    - target: {fileID: 224948259784450192, guid: 2dad89ef44ece134fbd2ffbc9125db6c,
        type: 2}
      propertyPath: m_AnchoredPosition.y
      value: 0
      objectReference: {fileID: 0}
    - target: {fileID: 224948259784450192, guid: 2dad89ef44ece134fbd2ffbc9125db6c,
        type: 2}
      propertyPath: m_SizeDelta.x
      value: 0
      objectReference: {fileID: 0}
    - target: {fileID: 224948259784450192, guid: 2dad89ef44ece134fbd2ffbc9125db6c,
        type: 2}
      propertyPath: m_SizeDelta.y
      value: 0
      objectReference: {fileID: 0}
    - target: {fileID: 224084092511008182, guid: 2dad89ef44ece134fbd2ffbc9125db6c,
        type: 2}
      propertyPath: m_SizeDelta.x
      value: 0
      objectReference: {fileID: 0}
    - target: {fileID: 224084092511008182, guid: 2dad89ef44ece134fbd2ffbc9125db6c,
        type: 2}
      propertyPath: m_SizeDelta.y
      value: 0
      objectReference: {fileID: 0}
    - target: {fileID: 224791067174162460, guid: 2dad89ef44ece134fbd2ffbc9125db6c,
        type: 2}
      propertyPath: m_AnchorMin.y
      value: 0
      objectReference: {fileID: 0}
    - target: {fileID: 224791067174162460, guid: 2dad89ef44ece134fbd2ffbc9125db6c,
        type: 2}
      propertyPath: m_AnchorMax.y
      value: 0
      objectReference: {fileID: 0}
    - target: {fileID: 224791067174162460, guid: 2dad89ef44ece134fbd2ffbc9125db6c,
        type: 2}
      propertyPath: m_AnchoredPosition.x
      value: 0
      objectReference: {fileID: 0}
    - target: {fileID: 224791067174162460, guid: 2dad89ef44ece134fbd2ffbc9125db6c,
        type: 2}
      propertyPath: m_AnchoredPosition.y
      value: 0
      objectReference: {fileID: 0}
    - target: {fileID: 224535946192333800, guid: 2dad89ef44ece134fbd2ffbc9125db6c,
        type: 2}
      propertyPath: m_AnchorMin.y
      value: 0
      objectReference: {fileID: 0}
    - target: {fileID: 224535946192333800, guid: 2dad89ef44ece134fbd2ffbc9125db6c,
        type: 2}
      propertyPath: m_AnchorMax.y
      value: 0
      objectReference: {fileID: 0}
    - target: {fileID: 224535946192333800, guid: 2dad89ef44ece134fbd2ffbc9125db6c,
        type: 2}
      propertyPath: m_AnchoredPosition.x
      value: 50.5
      objectReference: {fileID: 0}
    - target: {fileID: 224535946192333800, guid: 2dad89ef44ece134fbd2ffbc9125db6c,
        type: 2}
      propertyPath: m_AnchoredPosition.y
      value: 0
      objectReference: {fileID: 0}
    - target: {fileID: 224535946192333800, guid: 2dad89ef44ece134fbd2ffbc9125db6c,
        type: 2}
      propertyPath: m_SizeDelta.x
      value: 0
      objectReference: {fileID: 0}
    - target: {fileID: 224535946192333800, guid: 2dad89ef44ece134fbd2ffbc9125db6c,
        type: 2}
      propertyPath: m_SizeDelta.y
      value: 0
      objectReference: {fileID: 0}
    - target: {fileID: 224176629731164624, guid: 2dad89ef44ece134fbd2ffbc9125db6c,
        type: 2}
      propertyPath: m_SizeDelta.x
      value: 0
      objectReference: {fileID: 0}
    - target: {fileID: 224176629731164624, guid: 2dad89ef44ece134fbd2ffbc9125db6c,
        type: 2}
      propertyPath: m_SizeDelta.y
      value: 0
      objectReference: {fileID: 0}
    - target: {fileID: 224588103683733296, guid: 2dad89ef44ece134fbd2ffbc9125db6c,
        type: 2}
      propertyPath: m_AnchorMin.y
      value: 0
      objectReference: {fileID: 0}
    - target: {fileID: 224588103683733296, guid: 2dad89ef44ece134fbd2ffbc9125db6c,
        type: 2}
      propertyPath: m_AnchorMax.y
      value: 0
      objectReference: {fileID: 0}
    - target: {fileID: 224588103683733296, guid: 2dad89ef44ece134fbd2ffbc9125db6c,
        type: 2}
      propertyPath: m_AnchoredPosition.x
      value: 0
      objectReference: {fileID: 0}
    - target: {fileID: 224588103683733296, guid: 2dad89ef44ece134fbd2ffbc9125db6c,
        type: 2}
      propertyPath: m_AnchoredPosition.y
      value: 0
      objectReference: {fileID: 0}
    - target: {fileID: 224020221718806358, guid: 2dad89ef44ece134fbd2ffbc9125db6c,
        type: 2}
      propertyPath: m_AnchorMin.y
      value: 0
      objectReference: {fileID: 0}
    - target: {fileID: 224020221718806358, guid: 2dad89ef44ece134fbd2ffbc9125db6c,
        type: 2}
      propertyPath: m_AnchorMax.y
      value: 0
      objectReference: {fileID: 0}
    - target: {fileID: 224020221718806358, guid: 2dad89ef44ece134fbd2ffbc9125db6c,
        type: 2}
      propertyPath: m_AnchoredPosition.y
      value: 0
      objectReference: {fileID: 0}
    - target: {fileID: 224020221718806358, guid: 2dad89ef44ece134fbd2ffbc9125db6c,
        type: 2}
      propertyPath: m_SizeDelta.x
      value: 0
      objectReference: {fileID: 0}
    - target: {fileID: 224020221718806358, guid: 2dad89ef44ece134fbd2ffbc9125db6c,
        type: 2}
      propertyPath: m_SizeDelta.y
      value: 0
      objectReference: {fileID: 0}
    - target: {fileID: 224605802278694712, guid: 2dad89ef44ece134fbd2ffbc9125db6c,
        type: 2}
      propertyPath: m_SizeDelta.x
      value: 0
      objectReference: {fileID: 0}
    - target: {fileID: 224605802278694712, guid: 2dad89ef44ece134fbd2ffbc9125db6c,
        type: 2}
      propertyPath: m_SizeDelta.y
      value: 0
      objectReference: {fileID: 0}
    - target: {fileID: 224975436213680628, guid: 2dad89ef44ece134fbd2ffbc9125db6c,
        type: 2}
      propertyPath: m_AnchorMin.y
      value: 0
      objectReference: {fileID: 0}
    - target: {fileID: 224975436213680628, guid: 2dad89ef44ece134fbd2ffbc9125db6c,
        type: 2}
      propertyPath: m_AnchorMax.y
      value: 0
      objectReference: {fileID: 0}
    - target: {fileID: 224975436213680628, guid: 2dad89ef44ece134fbd2ffbc9125db6c,
        type: 2}
      propertyPath: m_AnchoredPosition.x
      value: 0
      objectReference: {fileID: 0}
    - target: {fileID: 224975436213680628, guid: 2dad89ef44ece134fbd2ffbc9125db6c,
        type: 2}
      propertyPath: m_AnchoredPosition.y
      value: 0
      objectReference: {fileID: 0}
    - target: {fileID: 224220265059865090, guid: 2dad89ef44ece134fbd2ffbc9125db6c,
        type: 2}
      propertyPath: m_AnchorMin.y
      value: 0
      objectReference: {fileID: 0}
    - target: {fileID: 224220265059865090, guid: 2dad89ef44ece134fbd2ffbc9125db6c,
        type: 2}
      propertyPath: m_AnchorMax.y
      value: 0
      objectReference: {fileID: 0}
    - target: {fileID: 224220265059865090, guid: 2dad89ef44ece134fbd2ffbc9125db6c,
        type: 2}
      propertyPath: m_AnchoredPosition.y
      value: 0
      objectReference: {fileID: 0}
    - target: {fileID: 224220265059865090, guid: 2dad89ef44ece134fbd2ffbc9125db6c,
        type: 2}
      propertyPath: m_SizeDelta.x
      value: 0
      objectReference: {fileID: 0}
    - target: {fileID: 224220265059865090, guid: 2dad89ef44ece134fbd2ffbc9125db6c,
        type: 2}
      propertyPath: m_SizeDelta.y
      value: 0
      objectReference: {fileID: 0}
    - target: {fileID: 224760070874134616, guid: 2dad89ef44ece134fbd2ffbc9125db6c,
        type: 2}
      propertyPath: m_SizeDelta.x
      value: 0
      objectReference: {fileID: 0}
    - target: {fileID: 224760070874134616, guid: 2dad89ef44ece134fbd2ffbc9125db6c,
        type: 2}
      propertyPath: m_SizeDelta.y
      value: 0
      objectReference: {fileID: 0}
    - target: {fileID: 224378024462470178, guid: 2dad89ef44ece134fbd2ffbc9125db6c,
        type: 2}
      propertyPath: m_AnchorMin.y
      value: 0
      objectReference: {fileID: 0}
    - target: {fileID: 224378024462470178, guid: 2dad89ef44ece134fbd2ffbc9125db6c,
        type: 2}
      propertyPath: m_AnchorMax.y
      value: 0
      objectReference: {fileID: 0}
    - target: {fileID: 224378024462470178, guid: 2dad89ef44ece134fbd2ffbc9125db6c,
        type: 2}
      propertyPath: m_AnchoredPosition.x
      value: 0
      objectReference: {fileID: 0}
    - target: {fileID: 224378024462470178, guid: 2dad89ef44ece134fbd2ffbc9125db6c,
        type: 2}
      propertyPath: m_AnchoredPosition.y
      value: 0
      objectReference: {fileID: 0}
    - target: {fileID: 224284412271212714, guid: 2dad89ef44ece134fbd2ffbc9125db6c,
        type: 2}
      propertyPath: m_SizeDelta.x
      value: 0
      objectReference: {fileID: 0}
    - target: {fileID: 224284412271212714, guid: 2dad89ef44ece134fbd2ffbc9125db6c,
        type: 2}
      propertyPath: m_SizeDelta.y
      value: 0
      objectReference: {fileID: 0}
    - target: {fileID: 224475704610204188, guid: 2dad89ef44ece134fbd2ffbc9125db6c,
        type: 2}
      propertyPath: m_AnchorMin.y
      value: 0
      objectReference: {fileID: 0}
    - target: {fileID: 224475704610204188, guid: 2dad89ef44ece134fbd2ffbc9125db6c,
        type: 2}
      propertyPath: m_AnchorMax.y
      value: 0
      objectReference: {fileID: 0}
    - target: {fileID: 224475704610204188, guid: 2dad89ef44ece134fbd2ffbc9125db6c,
        type: 2}
      propertyPath: m_AnchoredPosition.x
      value: 0
      objectReference: {fileID: 0}
    - target: {fileID: 224475704610204188, guid: 2dad89ef44ece134fbd2ffbc9125db6c,
        type: 2}
      propertyPath: m_AnchoredPosition.y
      value: 0
      objectReference: {fileID: 0}
    - target: {fileID: 224398174754704992, guid: 2dad89ef44ece134fbd2ffbc9125db6c,
        type: 2}
      propertyPath: m_AnchorMin.y
      value: 0
      objectReference: {fileID: 0}
    - target: {fileID: 224398174754704992, guid: 2dad89ef44ece134fbd2ffbc9125db6c,
        type: 2}
      propertyPath: m_AnchorMax.y
      value: 0
      objectReference: {fileID: 0}
    - target: {fileID: 224398174754704992, guid: 2dad89ef44ece134fbd2ffbc9125db6c,
        type: 2}
      propertyPath: m_AnchoredPosition.x
      value: 26
      objectReference: {fileID: 0}
    - target: {fileID: 224398174754704992, guid: 2dad89ef44ece134fbd2ffbc9125db6c,
        type: 2}
      propertyPath: m_AnchoredPosition.y
      value: 0
      objectReference: {fileID: 0}
    - target: {fileID: 224398174754704992, guid: 2dad89ef44ece134fbd2ffbc9125db6c,
        type: 2}
      propertyPath: m_SizeDelta.x
      value: 0
      objectReference: {fileID: 0}
    - target: {fileID: 224398174754704992, guid: 2dad89ef44ece134fbd2ffbc9125db6c,
        type: 2}
      propertyPath: m_SizeDelta.y
      value: 0
      objectReference: {fileID: 0}
    - target: {fileID: 224623733699231350, guid: 2dad89ef44ece134fbd2ffbc9125db6c,
        type: 2}
      propertyPath: m_SizeDelta.x
      value: 0
      objectReference: {fileID: 0}
    - target: {fileID: 224623733699231350, guid: 2dad89ef44ece134fbd2ffbc9125db6c,
        type: 2}
      propertyPath: m_SizeDelta.y
      value: 0
      objectReference: {fileID: 0}
    - target: {fileID: 224307398149440650, guid: 2dad89ef44ece134fbd2ffbc9125db6c,
        type: 2}
      propertyPath: m_AnchorMin.y
      value: 0
      objectReference: {fileID: 0}
    - target: {fileID: 224307398149440650, guid: 2dad89ef44ece134fbd2ffbc9125db6c,
        type: 2}
      propertyPath: m_AnchorMax.y
      value: 0
      objectReference: {fileID: 0}
    - target: {fileID: 224307398149440650, guid: 2dad89ef44ece134fbd2ffbc9125db6c,
        type: 2}
      propertyPath: m_AnchoredPosition.x
      value: 0
      objectReference: {fileID: 0}
    - target: {fileID: 224307398149440650, guid: 2dad89ef44ece134fbd2ffbc9125db6c,
        type: 2}
      propertyPath: m_AnchoredPosition.y
      value: 0
      objectReference: {fileID: 0}
    - target: {fileID: 224920844147376420, guid: 2dad89ef44ece134fbd2ffbc9125db6c,
        type: 2}
      propertyPath: m_AnchorMin.y
      value: 0
      objectReference: {fileID: 0}
    - target: {fileID: 224920844147376420, guid: 2dad89ef44ece134fbd2ffbc9125db6c,
        type: 2}
      propertyPath: m_AnchorMax.y
      value: 0
      objectReference: {fileID: 0}
    - target: {fileID: 224920844147376420, guid: 2dad89ef44ece134fbd2ffbc9125db6c,
        type: 2}
      propertyPath: m_AnchoredPosition.y
      value: 0
      objectReference: {fileID: 0}
    - target: {fileID: 224920844147376420, guid: 2dad89ef44ece134fbd2ffbc9125db6c,
        type: 2}
      propertyPath: m_SizeDelta.x
      value: 0
      objectReference: {fileID: 0}
    - target: {fileID: 224920844147376420, guid: 2dad89ef44ece134fbd2ffbc9125db6c,
        type: 2}
      propertyPath: m_SizeDelta.y
      value: 0
      objectReference: {fileID: 0}
    - target: {fileID: 224155684922789980, guid: 2dad89ef44ece134fbd2ffbc9125db6c,
        type: 2}
      propertyPath: m_SizeDelta.x
      value: 0
      objectReference: {fileID: 0}
    - target: {fileID: 224155684922789980, guid: 2dad89ef44ece134fbd2ffbc9125db6c,
        type: 2}
      propertyPath: m_SizeDelta.y
      value: 0
      objectReference: {fileID: 0}
    - target: {fileID: 224865697975235900, guid: 2dad89ef44ece134fbd2ffbc9125db6c,
        type: 2}
      propertyPath: m_SizeDelta.x
      value: 0
      objectReference: {fileID: 0}
    - target: {fileID: 224865697975235900, guid: 2dad89ef44ece134fbd2ffbc9125db6c,
        type: 2}
      propertyPath: m_SizeDelta.y
      value: 0
      objectReference: {fileID: 0}
    m_RemovedComponents: []
  m_SourcePrefab: {fileID: 100100000, guid: 2dad89ef44ece134fbd2ffbc9125db6c, type: 2}
  m_IsPrefabAsset: 0
--- !u!1001 &1812957378
Prefab:
  m_ObjectHideFlags: 0
  serializedVersion: 2
  m_Modification:
    m_TransformParent: {fileID: 0}
    m_Modifications:
    - target: {fileID: 4333050662401230, guid: 9535ba37a5c77e047a917ecbfb10b95a, type: 2}
      propertyPath: m_LocalPosition.x
      value: 0
      objectReference: {fileID: 0}
    - target: {fileID: 4333050662401230, guid: 9535ba37a5c77e047a917ecbfb10b95a, type: 2}
      propertyPath: m_LocalPosition.y
      value: 0
      objectReference: {fileID: 0}
    - target: {fileID: 4333050662401230, guid: 9535ba37a5c77e047a917ecbfb10b95a, type: 2}
      propertyPath: m_LocalPosition.z
      value: 0
      objectReference: {fileID: 0}
    - target: {fileID: 4333050662401230, guid: 9535ba37a5c77e047a917ecbfb10b95a, type: 2}
      propertyPath: m_LocalRotation.x
      value: -0
      objectReference: {fileID: 0}
    - target: {fileID: 4333050662401230, guid: 9535ba37a5c77e047a917ecbfb10b95a, type: 2}
      propertyPath: m_LocalRotation.y
      value: -0
      objectReference: {fileID: 0}
    - target: {fileID: 4333050662401230, guid: 9535ba37a5c77e047a917ecbfb10b95a, type: 2}
      propertyPath: m_LocalRotation.z
      value: -0
      objectReference: {fileID: 0}
    - target: {fileID: 4333050662401230, guid: 9535ba37a5c77e047a917ecbfb10b95a, type: 2}
      propertyPath: m_LocalRotation.w
      value: 1
      objectReference: {fileID: 0}
    - target: {fileID: 4333050662401230, guid: 9535ba37a5c77e047a917ecbfb10b95a, type: 2}
      propertyPath: m_RootOrder
      value: 3
      objectReference: {fileID: 0}
    - target: {fileID: 1519008946881724, guid: 9535ba37a5c77e047a917ecbfb10b95a, type: 2}
      propertyPath: m_Name
      value: Sector (1)
      objectReference: {fileID: 0}
    m_RemovedComponents: []
  m_SourcePrefab: {fileID: 100100000, guid: 9535ba37a5c77e047a917ecbfb10b95a, type: 2}
  m_IsPrefabAsset: 0
--- !u!1001 &1983017944
Prefab:
  m_ObjectHideFlags: 0
  serializedVersion: 2
  m_Modification:
    m_TransformParent: {fileID: 0}
    m_Modifications:
    - target: {fileID: 4333050662401230, guid: 9535ba37a5c77e047a917ecbfb10b95a, type: 2}
      propertyPath: m_LocalPosition.x
      value: 0
      objectReference: {fileID: 0}
    - target: {fileID: 4333050662401230, guid: 9535ba37a5c77e047a917ecbfb10b95a, type: 2}
      propertyPath: m_LocalPosition.y
      value: 0
      objectReference: {fileID: 0}
    - target: {fileID: 4333050662401230, guid: 9535ba37a5c77e047a917ecbfb10b95a, type: 2}
      propertyPath: m_LocalPosition.z
      value: 0
      objectReference: {fileID: 0}
    - target: {fileID: 4333050662401230, guid: 9535ba37a5c77e047a917ecbfb10b95a, type: 2}
      propertyPath: m_LocalRotation.x
      value: -0
      objectReference: {fileID: 0}
    - target: {fileID: 4333050662401230, guid: 9535ba37a5c77e047a917ecbfb10b95a, type: 2}
      propertyPath: m_LocalRotation.y
      value: -0
      objectReference: {fileID: 0}
    - target: {fileID: 4333050662401230, guid: 9535ba37a5c77e047a917ecbfb10b95a, type: 2}
      propertyPath: m_LocalRotation.z
      value: -0
      objectReference: {fileID: 0}
    - target: {fileID: 4333050662401230, guid: 9535ba37a5c77e047a917ecbfb10b95a, type: 2}
      propertyPath: m_LocalRotation.w
      value: 1
      objectReference: {fileID: 0}
    - target: {fileID: 4333050662401230, guid: 9535ba37a5c77e047a917ecbfb10b95a, type: 2}
      propertyPath: m_RootOrder
      value: 7
      objectReference: {fileID: 0}
    - target: {fileID: 1519008946881724, guid: 9535ba37a5c77e047a917ecbfb10b95a, type: 2}
      propertyPath: m_Name
      value: Sector (5)
      objectReference: {fileID: 0}
    m_RemovedComponents: []
  m_SourcePrefab: {fileID: 100100000, guid: 9535ba37a5c77e047a917ecbfb10b95a, type: 2}
  m_IsPrefabAsset: 0
